NBA Gambling Woes - Jessica Blum's GitHub Site
…
    7 min read

    NBA Gambling Woes

    2022-04-28

## # A tibble: 25 × 4
##    variable                                  type    role      source  
##    <chr>                                     <chr>   <chr>     <chr>   
##  1 game_id                                   numeric ID        original
##  2 game_date                                 date    ID        original
##  3 team_short_display_name                   nominal ID        original
##  4 opponent_short_display_name               nominal ID        original
##  5 season                                    numeric ID        original
##  6 opponent_rolling_o_eff                    numeric predictor original
##  7 opponent_rolling_d_eff                    numeric predictor original
##  8 opponent_rolling_true_shooting_percentage numeric predictor original
##  9 opponent_nrtg                             numeric predictor original
## 10 opponent_rolling_orb                      numeric predictor original
## # … with 15 more rows
…
